[
   {
      "name": "Andy Santosa",
      "tag": "Software Developer",
      "group": "SD",
      "estimation": 2,
      "isConfirm": true
   },
   {
      "name": "Asep Ridwan",
      "tag": "Software Developer",
      "group": "SD",
      "estimation": 3
   },
   {
      "name": "Harizal Hilmi",
      "tag": "Software Developer",
      "group": "SD",
      "estimation": 2
   },
   {
      "name": "Deky",
      "tag": "Software Developer",
      "group": "SD",
      "estimation": 2
   },
   {
      "name": "Bambang",
      "tag": "Front End Developer",
      "group": "FE",
      "estimation": 6
   },
   {
      "name": "Bogi",
      "tag": "System Tester",
      "group": "QA",
      "estimation": 8
   }
]